; Engine configuration file.
; It's best edited using the editor UI and not directly,
; since the parameters that go here are not all obvious.
;
; Format:
;   [section] ; section goes between []
;   param=value ; assign values to parameters

config_version=4

[application]

config/name="interactive-board"
config/description="Copyright (c) 2021 Harry Yupanqui, Free Aspect SAC,"
run/main_scene="res://main.tscn"
config/icon="res://icon.png"

[display]

window/size/width=800
window/stretch/mode="2d"
window/stretch/aspect="keep"

[gdnative]

singletons=[  ]

[gui]

theme/custom_font="res://assets/font/SourceSans3-Regular.tres"

[importer_defaults]

texture={
"compress/bptc_ldr": 0,
"compress/hdr_mode": 0,
"compress/lossy_quality": 0.5,
"compress/mode": 0,
"compress/normal_map": 0,
"detect_3d": true,
"flags/anisotropic": false,
"flags/filter": true,
"flags/mipmaps": false,
"flags/repeat": 0,
"flags/srgb": 2,
"process/HDR_as_SRGB": false,
"process/fix_alpha_border": true,
"process/invert_color": false,
"process/normal_map_invert_y": false,
"process/premult_alpha": false,
"size_limit": 0,
"stream": false,
"svg/scale": 1.0
}

[input]

click={
"deadzone": 0.5,
"events": [ Object(InputEventMouseButton,"resource_local_to_scene":false,"resource_name":"","device":0,"alt":false,"shift":false,"control":false,"meta":false,"command":false,"button_mask":0,"position":Vector2( 0, 0 ),"global_position":Vector2( 0, 0 ),"factor":1.0,"button_index":1,"pressed":false,"doubleclick":false,"script":null)
 ]
}

[logging]

file_logging/enable_file_logging.pc=false

[node]

name_casing=2

[physics]

common/enable_pause_aware_picking=true

[rendering]

vram_compression/import_etc=true
vram_compression/import_etc2=false
